LA Crime: Who Are the Victims? (Pt.1)
…
#110    CRIMINAL HOMICIDE
df2 %>% ethnic_disparity(bycount = T,majority = T, w = T) #%>% 

## Warning: Factor `vict_descent` contains implicit NA, consider using
## `forcats::fct_explicit_na`

## Adding missing grouping variables: `crm_cd`

## # A tibble: 134 x 6
## # Groups:   crm_cd, crm_cd_desc [134]
##    crm_cd crm_cd_desc            vict_descent ethnic_count disparity total_count
##     <int> <fct>                  <fct>               <int>     <dbl>       <int>
##  1    624 BATTERY - SIMPLE ASSA… B                   11810    0.0333       43646
##  2    330 BURGLARY FROM VEHICLE  B                    5044    0.0142       34732
##  3    440 THEFT PLAIN - PETTY (… B                    5981    0.0169       30348
##  4    310 BURGLARY               B                    4846    0.0137       28996
##  5    626 INTIMATE PARTNER - SI… B                    7357    0.0208       27134
##  6    354 THEFT OF IDENTITY      B                    4839    0.0137       27067
##  7    230 ASSAULT WITH DEADLY W… B                    7083    0.0200       21716
##  8    740 VANDALISM - FELONY ($… B                    3903    0.0110       21571
##  9    745 VANDALISM - MISDEAMEA… B                    4359    0.0123       18985
## 10    210 ROBBERY                B                    3647    0.0103       17864
## # … with 124 more rows
…
#df2 %>% victim_plot(grouping = "ethnicity",p_prop = T)

#df2 %>% victim_plot(grouping = "sex")

df2 %>% 
    filter(vict_sex == "M" | vict_sex =="F" | is.na(vict_sex) == T) %>%
    mutate(vict_sex = forcats::fct_explicit_na(vict_sex,na_level = "UNK")) %>%
    group_by(crm_cd,crm_cd_desc,vict_sex) %>% summarize(count = n()) %>%  
    mutate(percent = round(count/sum(count),6)) %>%
    pivot_wider(names_from = vict_sex, values_from = percent) %>% 
    transmute(f = F, m = M,UNK) %>% tidyr::fill(m,.direction = "updown") %>% 
    tidyr::fill(f,.direction = "updown") %>% tidyr::fill(UNK,.direction = "updown") %>%
    replace_na(list(f = 0, m = 0))

## # A tibble: 293 x 5
## # Groups:   crm_cd, crm_cd_desc [18,090]
##    crm_cd crm_cd_desc           f       m       UNK
##     <int> <fct>             <dbl>   <dbl>     <dbl>
##  1    110 CRIMINAL HOMICIDE 0.137 0.861    0.00144 
##  2    110 CRIMINAL HOMICIDE 0.137 0.861    0.00144 
##  3    110 CRIMINAL HOMICIDE 0.137 0.861    0.00144 
##  4    121 RAPE, FORCIBLE    0.991 0.00931 NA       
##  5    121 RAPE, FORCIBLE    0.991 0.00931 NA       
##  6    122 RAPE, ATTEMPTED   0.989 0.0109  NA       
##  7    122 RAPE, ATTEMPTED   0.989 0.0109  NA       
##  8    210 ROBBERY           0.308 0.692    0.000548
##  9    210 ROBBERY           0.308 0.692    0.000548
## 10    210 ROBBERY           0.308 0.692    0.000548
## # … with 283 more rows
…
